<?xml version="1.0" encoding="utf-8"?>
<!-- Generator: Adobe Illustrator 19.2.1, SVG Export Plug-In . SVG Version: 6.00 Build 0)  -->
<svg version="1.1" id="Шар_1" xmlns="http://www.w3.org/2000/svg" xmlns:xlink="http://www.w3.org/1999/xlink" x="0px" y="0px"
	 viewBox="0 0 39 39" style="enable-background:new 0 0 39 39;" xml:space="preserve">
<style type="text/css">
	.st0{fill:#F1F1F1;}
	.st1{fill:#EBEBEB;}
</style>
<title>icon-main-3</title>
<g>
	<path class="st0" d="M19.5,39C8.8,39,0,30.3,0,19.5C0,8.8,8.8,0,19.5,0S39,8.8,39,19.5C39,30.3,30.3,39,19.5,39z M19.5,1.2
		C9.4,1.2,1.2,9.4,1.2,19.5s8.2,18.3,18.3,18.3c10.1,0,18.3-8.2,18.3-18.3S29.6,1.2,19.5,1.2z"/>
</g>
<g>
	<path class="st1" d="M32.1,9.5l-1.6-1.6c-0.4-0.4-1.1-0.4-1.5,0c0,0,0,0,0,0l-9.4,9.4c0,0-0.1,0.1-0.1,0.1l-1.1,3.7
		c0,0.2,0.1,0.4,0.2,0.4c0,0,0.1,0,0.1,0h0.1l3.7-1.1c0.1,0,0.1,0,0.1-0.1l9.4-9.4C32.6,10.6,32.6,9.9,32.1,9.5
		C32.2,9.5,32.2,9.5,32.1,9.5L32.1,9.5L32.1,9.5z M22.5,19.6l-0.8-0.8l8-8l0.8,0.8L22.5,19.6z M21.2,18.3l-0.8-0.8l8-8l0.8,0.8
		L21.2,18.3z M20.1,18.2l1.8,1.8l-2.5,0.8L20.1,18.2z M31.7,10.5L31,11.1L28.9,9l0.6-0.6c0.2-0.2,0.4-0.2,0.6,0l1.6,1.6
		C31.8,10.1,31.8,10.4,31.7,10.5L31.7,10.5L31.7,10.5z"/>
</g>
<g>
	<path class="st1" d="M14.3,22.4c-0.1-0.1-0.4-0.1-0.5,0L11.2,25c-0.1,0.1-0.1,0.4,0,0.5l2.6,2.6c0.2,0.1,0.4,0.1,0.5-0.1
		c0.1-0.1,0.1-0.3,0-0.4L12,25.3l2.3-2.3C14.4,22.8,14.4,22.6,14.3,22.4L14.3,22.4L14.3,22.4z"/>
</g>
<g>
	<path class="st1" d="M18.2,28.1c0.1,0.1,0.4,0.1,0.5,0l2.6-2.6c0.1-0.1,0.1-0.4,0-0.5l-2.6-2.6c-0.1-0.2-0.3-0.2-0.5-0.1
		c-0.2,0.1-0.2,0.3-0.1,0.5c0,0,0,0,0.1,0.1l2.3,2.3l-2.3,2.3C18.1,27.7,18.1,28,18.2,28.1L18.2,28.1L18.2,28.1z"/>
</g>
<g>
	<path class="st1" d="M23.2,21.2c-0.2,0-0.4,0.2-0.4,0.4l0,0V29c0,0.6-0.5,1.1-1.1,1.1h-11c-0.6,0-1.1-0.5-1.1-1.1v-7.4
		c0-0.6,0.5-1.1,1.1-1.1h6.6c0.2,0,0.4-0.1,0.4-0.3c0-0.2-0.1-0.4-0.3-0.4c0,0-0.1,0-0.1,0h-6.6c-1,0-1.8,0.8-1.8,1.8V29
		c0,1,0.8,1.8,1.8,1.8h11.1c1,0,1.8-0.8,1.8-1.8v-7.4C23.6,21.4,23.5,21.2,23.2,21.2L23.2,21.2L23.2,21.2L23.2,21.2z"/>
</g>
<g>
	<path class="st1" d="M14.6,26.1c-0.1,0.1-0.1,0.3,0,0.5c0.1,0.1,0.3,0.1,0.5,0c0.1-0.1,0.1-0.3,0-0.5C15,26.1,14.9,26,14.8,26
		C14.7,26,14.6,26.1,14.6,26.1L14.6,26.1z"/>
</g>
<g>
	<path class="st1" d="M17.4,26.4c0,0.2,0.2,0.4,0.3,0.4c0.2,0,0.4-0.2,0.4-0.3S17.9,26,17.8,26c-0.1,0-0.2,0-0.3,0.1
		C17.4,26.2,17.4,26.3,17.4,26.4L17.4,26.4z"/>
</g>
<g>
	<path class="st1" d="M16,26.1c-0.1,0.1-0.1,0.3,0,0.5c0.1,0.1,0.3,0.1,0.5,0c0.1-0.1,0.1-0.3,0-0.5c-0.1-0.1-0.2-0.1-0.2-0.1
		C16.2,26,16.1,26.1,16,26.1L16,26.1z"/>
</g>
</svg>
